<svg xmlns="http://www.w3.org/2000/svg" viewBox="0 0 72 91">
    <g fill="none" fill-rule="evenodd">
        <path fill="#F5F4F7" d="M52.314 48.301c-5.777.2-6.065-3.66-8.775-6.659-.4.032-.784.074-1.197.074-6.78.202-5.529-6.996-8.176-8.972-6.34-4.703-15.268-.612-19.943-5.375-1.5-1.53-2.785-3.001-2.987-4.992-.473-4.81.643-6.907 3.02-9.435 6.388-6.736 14.61-8.148 20.385-8.148 15.543.111 20.965 4.748 25.222 9.495 7 7.826 7.442 14.565 7.336 16.984 0 .304.075.584.075.872 0 8.927-6.707 15.883-14.96 16.156z"/>
        <path fill="#D8D8D8" d="M63.432 11.086C58.332 5.406 51.593.122 34.947 0h-.62c-6.505.055-16.053 1.742-23.546 9.664C6.11 14.59 2.666 20.826 3.663 31.01c.2 2.22 3.367 4.763 1.15 9.036 0 0-4.47 7.874-4.61 9.635v.195c.013.337.228 2.503 3.857 2.59 0 0 .997.122.706 2.293l-.047 3.174s.127.95 1.856 1.516c0 0 .337.321-.153.95 0 0-.917 1.012.643 3.198.582.794 1.518 1.807.95 3.862 0 0-.732 3.977.813 4.932 0 0 1.775 2.113 8.93 1.223 2.496-.307 7.103-1.519 9.862 1.944 0 0 6.572 12.482 7.063 15.439 0 0 11.224-19.956 24.903-23.048 0 0-3.323-7.522 3.458-17.263 0 0 8.5-11.21 8.747-17.381.004.002 2.24-10.383-8.359-22.22zM52.314 48.301c-5.775.2-6.065-3.662-8.773-6.66-.4.03-.786.073-1.197.073-6.782.2-5.528-6.999-8.178-8.974-6.342-4.7-15.268-.613-19.94-5.376-1.503-1.529-2.788-3-2.988-4.991-.473-4.81.644-6.91 3.02-9.438C20.645 6.2 28.866 4.787 34.644 4.787c15.545.11 20.965 4.748 25.224 9.496 6.999 7.826 7.443 14.566 7.336 16.985 0 .305.073.584.073.873-.002 8.931-6.71 15.887-14.962 16.16z"/>
        <path fill="#F81E1F" fill-rule="nonzero" d="M44.892 28.268l.94-19.343h-6.79l.983 19.343h4.867zm-2.434 9.905c.776-.006 1.445-.177 2.008-.512a3.473 3.473 0 0 0 1.323-1.38c.306-.585.462-1.246.468-1.994-.02-.761-.184-1.43-.497-2.013a3.47 3.47 0 0 0-1.325-1.365c-.561-.329-1.216-.497-1.977-.506-.762.007-1.43.177-2 .506a3.55 3.55 0 0 0-1.352 1.365c-.32.584-.484 1.252-.49 2.013.006.748.164 1.41.484 1.993a3.51 3.51 0 0 0 1.338 1.38c.575.336 1.245.507 2.02.513z"/>
    </g>
</svg>
